module gitlab.com/sirlatrom/secret-pets/presentty-secret-pets/installer

require (
	github.com/Azure/go-ansiterm v0.0.0-20170929234023-d6e3b3328b78 // indirect
	github.com/Microsoft/go-winio v0.4.12 // indirect
	github.com/docker/distribution v2.7.1+incompatible // indirect
	github.com/docker/docker v0.7.3-0.20190327063223-da823cf3a5a3
	github.com/docker/go-connections v0.4.0 // indirect
	github.com/docker/go-units v0.3.3 // indirect
	github.com/gogo/protobuf v1.2.1 // indirect
	github.com/google/go-cmp v0.3.0 // indirect
	github.com/gorilla/mux v1.7.1 // indirect
	github.com/konsorten/go-windows-terminal-sequences v1.0.2 // indirect
	github.com/morikuni/aec v0.0.0-20170113033406-39771216ff4c // indirect
	github.com/opencontainers/go-digest v1.0.0-rc1 // indirect
	github.com/opencontainers/image-spec v1.0.1 // indirect
	github.com/pkg/errors v0.8.1 // indirect
	github.com/sirupsen/logrus v1.4.0
	github.com/stretchr/testify v1.3.0 // indirect
	golang.org/x/crypto v0.0.0-20190325154230-a5d413f7728c // indirect
	golang.org/x/net v0.0.0-20190327214358-63eda1eb0650 // indirect
	golang.org/x/sys v0.0.0-20190322080309-f49334f85ddc // indirect
	golang.org/x/time v0.0.0-20190308202827-9d24e82272b4 // indirect
	google.golang.org/grpc v1.19.1 // indirect
	gotest.tools v2.2.0+incompatible // indirect
)
